{
  "cwd": "/Users/muhammadhuzaifah/Documents/workspace/mobile-app/digitalpolitik",
  "type": [
    "web",
    "cordova"
  ],
  "name": "DigitalPolitik",
  "framework": "core",
  "template": "tabs",
  "bundler": false,
  "cssPreProcessor": false,
  "theming": {
    "customColor": true,
    "color": "#005bbe",
    "darkTheme": false,
    "iconFonts": true,
    "fillBars": true
  },
  "customBuild": false,
  "pkg": "id.co.dnastudio.dompu",
  "cordova": {
    "folder": "cordova",
    "platforms": [
      "ios",
      "android"
    ],
    "plugins": [
      "cordova-plugin-camera": "^4.1.0",
      "callsplugin": "^0.2.3",
      "cordova-plugin-statusbar",
      "cordova-plugin-keyboard",
      "cordova-plugin-splashscreen",
      "cordova-sms-reader": "0.0.3"
    ]
  }
}